<?xml version="1.0" encoding="utf-8" standalone="no"?>
<!DOCTYPE svg PUBLIC "-//W3C//DTD SVG 1.1//EN"
  "http://www.w3.org/Graphics/SVG/1.1/DTD/svg11.dtd">
<svg xmlns:xlink="http://www.w3.org/1999/xlink" width="1152pt" height="720pt" viewBox="0 0 1152 720" xmlns="http://www.w3.org/2000/svg" version="1.1">
 <metadata>
  <rdf:RDF xmlns:dc="http://purl.org/dc/elements/1.1/" xmlns:cc="http://creativecommons.org/ns#" xmlns:rdf="http://www.w3.org/1999/02/22-rdf-syntax-ns#">
   <cc:Work>
    <dc:type rdf:resource="http://purl.org/dc/dcmitype/StillImage"/>
    <dc:date>2023-10-01T00:40:38.267461</dc:date>
    <dc:format>image/svg+xml</dc:format>
    <dc:creator>
     <cc:Agent>
      <dc:title>Matplotlib v3.7.2, https://matplotlib.org/</dc:title>
     </cc:Agent>
    </dc:creator>
   </cc:Work>
  </rdf:RDF>
 </metadata>
 <defs>
  <style type="text/css">*{stroke-linejoin: round; stroke-linecap: butt}</style>
 </defs>
 <g id="figure_1">
  <g id="patch_1">
   <path d="M 0 720 
L 1152 720 
L 1152 0 
L 0 0 
z
" style="fill: #ffffff"/>
  </g>
  <g id="axes_1">
   <g id="patch_2">
    <path d="M 321.155 650.58 
L 1132.56 650.58 
L 1132.56 19.44 
L 321.155 19.44 
z
" style="fill: #ffffff"/>
   </g>
   <g id="patch_3">
    <path d="M 321.155 22.06975 
L 508.40225 22.06975 
L 508.40225 43.10775 
L 321.155 43.10775 
z
" clip-path="url(#pfe32de258a)" style="fill: #9c6ed4"/>
   </g>
   <g id="patch_4">
    <path d="M 321.155 48.36725 
L 508.409001 48.36725 
L 508.409001 69.40525 
L 321.155 69.40525 
z
" clip-path="url(#pfe32de258a)" style="fill: #9c6ed4"/>
   </g>
   <g id="patch_5">
    <path d="M 321.155 74.66475 
L 508.412564 74.66475 
L 508.412564 95.70275 
L 321.155 95.70275 
z
" clip-path="url(#pfe32de258a)" style="fill: #9c6ed4"/>
   </g>
   <g id="patch_6">
    <path d="M 321.155 100.96225 
L 587.673765 100.96225 
L 587.673765 122.00025 
L 321.155 122.00025 
z
" clip-path="url(#pfe32de258a)" style="fill: #334152"/>
   </g>
   <g id="patch_7">
    <path d="M 321.155 127.25975 
L 587.674891 127.25975 
L 587.674891 148.29775 
L 321.155 148.29775 
z
" clip-path="url(#pfe32de258a)" style="fill: #9c6ed4"/>
   </g>
   <g id="patch_8">
    <path d="M 321.155 153.55725 
L 587.674891 153.55725 
L 587.674891 174.59525 
L 321.155 174.59525 
z
" clip-path="url(#pfe32de258a)" style="fill: #9c6ed4"/>
   </g>
   <g id="patch_9">
    <path d="M 321.155 179.85475 
L 588.248705 179.85475 
L 588.248705 200.89275 
L 321.155 200.89275 
z
" clip-path="url(#pfe32de258a)" style="fill: #334152"/>
   </g>
   <g id="patch_10">
    <path d="M 321.155 206.15225 
L 649.939374 206.15225 
L 649.939374 227.19025 
L 321.155 227.19025 
z
" clip-path="url(#pfe32de258a)" style="fill: #9c6ed4"/>
   </g>
   <g id="patch_11">
    <path d="M 321.155 232.44975 
L 894.39929 232.44975 
L 894.39929 253.48775 
L 321.155 253.48775 
z
" clip-path="url(#pfe32de258a)" style="fill: #de6eb1"/>
   </g>
   <g id="patch_12">
    <path d="M 321.155 258.74725 
L 894.39929 258.74725 
L 894.39929 279.78525 
L 321.155 279.78525 
z
" clip-path="url(#pfe32de258a)" style="fill: #e6d358"/>
   </g>
   <g id="patch_13">
    <path d="M 321.155 285.04475 
L 894.39929 285.04475 
L 894.39929 306.08275 
L 321.155 306.08275 
z
" clip-path="url(#pfe32de258a)" style="fill: #e6d358"/>
   </g>
   <g id="patch_14">
    <path d="M 321.155 311.34225 
L 894.39929 311.34225 
L 894.39929 332.38025 
L 321.155 332.38025 
z
" clip-path="url(#pfe32de258a)" style="fill: #1fd6be"/>
   </g>
   <g id="patch_15">
    <path d="M 321.155 337.63975 
L 894.39929 337.63975 
L 894.39929 358.67775 
L 321.155 358.67775 
z
" clip-path="url(#pfe32de258a)" style="fill: #1fd6be"/>
   </g>
   <g id="patch_16">
    <path d="M 321.155 363.93725 
L 894.39929 363.93725 
L 894.39929 384.97525 
L 321.155 384.97525 
z
" clip-path="url(#pfe32de258a)" style="fill: #de6eb1"/>
   </g>
   <g id="patch_17">
    <path d="M 321.155 390.23475 
L 894.39929 390.23475 
L 894.39929 411.27275 
L 321.155 411.27275 
z
" clip-path="url(#pfe32de258a)" style="fill: #334152"/>
   </g>
   <g id="patch_18">
    <path d="M 321.155 416.53225 
L 894.39929 416.53225 
L 894.39929 437.57025 
L 321.155 437.57025 
z
" clip-path="url(#pfe32de258a)" style="fill: #de6eb1"/>
   </g>
   <g id="patch_19">
    <path d="M 321.155 442.82975 
L 894.39929 442.82975 
L 894.39929 463.86775 
L 321.155 463.86775 
z
" clip-path="url(#pfe32de258a)" style="fill: #334152"/>
   </g>
   <g id="patch_20">
    <path d="M 321.155 469.12725 
L 894.39929 469.12725 
L 894.39929 490.16525 
L 321.155 490.16525 
z
" clip-path="url(#pfe32de258a)" style="fill: #334152"/>
   </g>
   <g id="patch_21">
    <path d="M 321.155 495.42475 
L 894.39929 495.42475 
L 894.39929 516.46275 
L 321.155 516.46275 
z
" clip-path="url(#pfe32de258a)" style="fill: #334152"/>
   </g>
   <g id="patch_22">
    <path d="M 321.155 521.72225 
L 894.39929 521.72225 
L 894.39929 542.76025 
L 321.155 542.76025 
z
" clip-path="url(#pfe32de258a)" style="fill: #1fd6be"/>
   </g>
   <g id="patch_23">
    <path d="M 321.155 548.01975 
L 894.39929 548.01975 
L 894.39929 569.05775 
L 321.155 569.05775 
z
" clip-path="url(#pfe32de258a)" style="fill: #1fd6be"/>
   </g>
   <g id="patch_24">
    <path d="M 321.155 574.31725 
L 894.406791 574.31725 
L 894.406791 595.35525 
L 321.155 595.35525 
z
" clip-path="url(#pfe32de258a)" style="fill: #e6d358"/>
   </g>
   <g id="patch_25">
    <path d="M 321.155 600.61475 
L 1093.921667 600.61475 
L 1093.921667 621.65275 
L 321.155 621.65275 
z
" clip-path="url(#pfe32de258a)" style="fill: #334152"/>
   </g>
   <g id="patch_26">
    <path d="M 321.155 626.91225 
L 1093.921667 626.91225 
L 1093.921667 647.95025 
L 321.155 647.95025 
z
" clip-path="url(#pfe32de258a)" style="fill: #334152"/>
   </g>
   <g id="matplotlib.axis_1">
    <g id="xtick_1">
     <g id="line2d_1">
      <defs>
       <path id="mcdba2ce5fb" d="M 0 0 
L 0 9 
" style="stroke: #000000; stroke-width: 1.875"/>
      </defs>
      <g>
       <use xlink:href="#mcdba2ce5fb" x="321.155" y="650.58" style="stroke: #000000; stroke-width: 1.875"/>
      </g>
     </g>
     <g id="text_1">
      <!-- 0 -->
      <g transform="translate(315.905937 675.617422) scale(0.165 -0.165)">
       <defs>
        <path id="DejaVuSans-30" d="M 2034 4250 
Q 1547 4250 1301 3770 
Q 1056 3291 1056 2328 
Q 1056 1369 1301 889 
Q 1547 409 2034 409 
Q 2525 409 2770 889 
Q 3016 1369 3016 2328 
Q 3016 3291 2770 3770 
Q 2525 4250 2034 4250 
z
M 2034 4750 
Q 2819 4750 3233 4129 
Q 3647 3509 3647 2328 
Q 3647 1150 3233 529 
Q 2819 -91 2034 -91 
Q 1250 -91 836 529 
Q 422 1150 422 2328 
Q 422 3509 836 4129 
Q 1250 4750 2034 4750 
z
" transform="scale(0.015625)"/>
       </defs>
       <use xlink:href="#DejaVuSans-30"/>
      </g>
     </g>
    </g>
    <g id="xtick_2">
     <g id="line2d_2">
      <g>
       <use xlink:href="#mcdba2ce5fb" x="417.165768" y="650.58" style="stroke: #000000; stroke-width: 1.875"/>
      </g>
     </g>
     <g id="text_2">
      <!-- 25 -->
      <g transform="translate(406.667643 675.617422) scale(0.165 -0.165)">
       <defs>
        <path id="DejaVuSans-32" d="M 1228 531 
L 3431 531 
L 3431 0 
L 469 0 
L 469 531 
Q 828 903 1448 1529 
Q 2069 2156 2228 2338 
Q 2531 2678 2651 2914 
Q 2772 3150 2772 3378 
Q 2772 3750 2511 3984 
Q 2250 4219 1831 4219 
Q 1534 4219 1204 4116 
Q 875 4013 500 3803 
L 500 4441 
Q 881 4594 1212 4672 
Q 1544 4750 1819 4750 
Q 2544 4750 2975 4387 
Q 3406 4025 3406 3419 
Q 3406 3131 3298 2873 
Q 3191 2616 2906 2266 
Q 2828 2175 2409 1742 
Q 1991 1309 1228 531 
z
" transform="scale(0.015625)"/>
        <path id="DejaVuSans-35" d="M 691 4666 
L 3169 4666 
L 3169 4134 
L 1269 4134 
L 1269 2991 
Q 1406 3038 1543 3061 
Q 1681 3084 1819 3084 
Q 2600 3084 3056 2656 
Q 3513 2228 3513 1497 
Q 3513 744 3044 326 
Q 2575 -91 1722 -91 
Q 1428 -91 1123 -41 
Q 819 9 494 109 
L 494 744 
Q 775 591 1075 516 
Q 1375 441 1709 441 
Q 2250 441 2565 725 
Q 2881 1009 2881 1497 
Q 2881 1984 2565 2268 
Q 2250 2553 1709 2553 
Q 1456 2553 1204 2497 
Q 953 2441 691 2322 
L 691 4666 
z
" transform="scale(0.015625)"/>
       </defs>
       <use xlink:href="#DejaVuSans-32"/>
       <use xlink:href="#DejaVuSans-35" x="63.623047"/>
      </g>
     </g>
    </g>
    <g id="xtick_3">
     <g id="line2d_3">
      <g>
       <use xlink:href="#mcdba2ce5fb" x="513.176535" y="650.58" style="stroke: #000000; stroke-width: 1.875"/>
      </g>
     </g>
     <g id="text_3">
      <!-- 50 -->
      <g transform="translate(502.67841 675.617422) scale(0.165 -0.165)">
       <use xlink:href="#DejaVuSans-35"/>
       <use xlink:href="#DejaVuSans-30" x="63.623047"/>
      </g>
     </g>
    </g>
    <g id="xtick_4">
     <g id="line2d_4">
      <g>
       <use xlink:href="#mcdba2ce5fb" x="609.187303" y="650.58" style="stroke: #000000; stroke-width: 1.875"/>
      </g>
     </g>
     <g id="text_4">
      <!-- 75 -->
      <g transform="translate(598.689178 675.617422) scale(0.165 -0.165)">
       <defs>
        <path id="DejaVuSans-37" d="M 525 4666 
L 3525 4666 
L 3525 4397 
L 1831 0 
L 1172 0 
L 2766 4134 
L 525 4134 
L 525 4666 
z
" transform="scale(0.015625)"/>
       </defs>
       <use xlink:href="#DejaVuSans-37"/>
       <use xlink:href="#DejaVuSans-35" x="63.623047"/>
      </g>
     </g>
    </g>
    <g id="xtick_5">
     <g id="line2d_5">
      <g>
       <use xlink:href="#mcdba2ce5fb" x="705.198071" y="650.58" style="stroke: #000000; stroke-width: 1.875"/>
      </g>
     </g>
     <g id="text_5">
      <!-- 100 -->
      <g transform="translate(689.450883 675.617422) scale(0.165 -0.165)">
       <defs>
        <path id="DejaVuSans-31" d="M 794 531 
L 1825 531 
L 1825 4091 
L 703 3866 
L 703 4441 
L 1819 4666 
L 2450 4666 
L 2450 531 
L 3481 531 
L 3481 0 
L 794 0 
L 794 531 
z
" transform="scale(0.015625)"/>
       </defs>
       <use xlink:href="#DejaVuSans-31"/>
       <use xlink:href="#DejaVuSans-30" x="63.623047"/>
       <use xlink:href="#DejaVuSans-30" x="127.246094"/>
      </g>
     </g>
    </g>
    <g id="xtick_6">
     <g id="line2d_6">
      <g>
       <use xlink:href="#mcdba2ce5fb" x="801.208839" y="650.58" style="stroke: #000000; stroke-width: 1.875"/>
      </g>
     </g>
     <g id="text_6">
      <!-- 125 -->
      <g transform="translate(785.461651 675.617422) scale(0.165 -0.165)">
       <use xlink:href="#DejaVuSans-31"/>
       <use xlink:href="#DejaVuSans-32" x="63.623047"/>
       <use xlink:href="#DejaVuSans-35" x="127.246094"/>
      </g>
     </g>
    </g>
    <g id="xtick_7">
     <g id="line2d_7">
      <g>
       <use xlink:href="#mcdba2ce5fb" x="897.219606" y="650.58" style="stroke: #000000; stroke-width: 1.875"/>
      </g>
     </g>
     <g id="text_7">
      <!-- 150 -->
      <g transform="translate(881.472419 675.617422) scale(0.165 -0.165)">
       <use xlink:href="#DejaVuSans-31"/>
       <use xlink:href="#DejaVuSans-35" x="63.623047"/>
       <use xlink:href="#DejaVuSans-30" x="127.246094"/>
      </g>
     </g>
    </g>
    <g id="xtick_8">
     <g id="line2d_8">
      <g>
       <use xlink:href="#mcdba2ce5fb" x="993.230374" y="650.58" style="stroke: #000000; stroke-width: 1.875"/>
      </g>
     </g>
     <g id="text_8">
      <!-- 175 -->
      <g transform="translate(977.483187 675.617422) scale(0.165 -0.165)">
       <use xlink:href="#DejaVuSans-31"/>
       <use xlink:href="#DejaVuSans-37" x="63.623047"/>
       <use xlink:href="#DejaVuSans-35" x="127.246094"/>
      </g>
     </g>
    </g>
    <g id="xtick_9">
     <g id="line2d_9">
      <g>
       <use xlink:href="#mcdba2ce5fb" x="1089.241142" y="650.58" style="stroke: #000000; stroke-width: 1.875"/>
      </g>
     </g>
     <g id="text_9">
      <!-- 200 -->
      <g transform="translate(1073.493954 675.617422) scale(0.165 -0.165)">
       <use xlink:href="#DejaVuSans-32"/>
       <use xlink:href="#DejaVuSans-30" x="63.623047"/>
       <use xlink:href="#DejaVuSans-30" x="127.246094"/>
      </g>
     </g>
    </g>
    <g id="text_10">
     <!-- File size [kB] -->
     <g transform="translate(670.215156 696.726094) scale(0.18 -0.18)">
      <defs>
       <path id="DejaVuSans-46" d="M 628 4666 
L 3309 4666 
L 3309 4134 
L 1259 4134 
L 1259 2759 
L 3109 2759 
L 3109 2228 
L 1259 2228 
L 1259 0 
L 628 0 
L 628 4666 
z
" transform="scale(0.015625)"/>
       <path id="DejaVuSans-69" d="M 603 3500 
L 1178 3500 
L 1178 0 
L 603 0 
L 603 3500 
z
M 603 4863 
L 1178 4863 
L 1178 4134 
L 603 4134 
L 603 4863 
z
" transform="scale(0.015625)"/>
       <path id="DejaVuSans-6c" d="M 603 4863 
L 1178 4863 
L 1178 0 
L 603 0 
L 603 4863 
z
" transform="scale(0.015625)"/>
       <path id="DejaVuSans-65" d="M 3597 1894 
L 3597 1613 
L 953 1613 
Q 991 1019 1311 708 
Q 1631 397 2203 397 
Q 2534 397 2845 478 
Q 3156 559 3463 722 
L 3463 178 
Q 3153 47 2828 -22 
Q 2503 -91 2169 -91 
Q 1331 -91 842 396 
Q 353 884 353 1716 
Q 353 2575 817 3079 
Q 1281 3584 2069 3584 
Q 2775 3584 3186 3129 
Q 3597 2675 3597 1894 
z
M 3022 2063 
Q 3016 2534 2758 2815 
Q 2500 3097 2075 3097 
Q 1594 3097 1305 2825 
Q 1016 2553 972 2059 
L 3022 2063 
z
" transform="scale(0.015625)"/>
       <path id="DejaVuSans-20" transform="scale(0.015625)"/>
       <path id="DejaVuSans-73" d="M 2834 3397 
L 2834 2853 
Q 2591 2978 2328 3040 
Q 2066 3103 1784 3103 
Q 1356 3103 1142 2972 
Q 928 2841 928 2578 
Q 928 2378 1081 2264 
Q 1234 2150 1697 2047 
L 1894 2003 
Q 2506 1872 2764 1633 
Q 3022 1394 3022 966 
Q 3022 478 2636 193 
Q 2250 -91 1575 -91 
Q 1294 -91 989 -36 
Q 684 19 347 128 
L 347 722 
Q 666 556 975 473 
Q 1284 391 1588 391 
Q 1994 391 2212 530 
Q 2431 669 2431 922 
Q 2431 1156 2273 1281 
Q 2116 1406 1581 1522 
L 1381 1569 
Q 847 1681 609 1914 
Q 372 2147 372 2553 
Q 372 3047 722 3315 
Q 1072 3584 1716 3584 
Q 2034 3584 2315 3537 
Q 2597 3491 2834 3397 
z
" transform="scale(0.015625)"/>
       <path id="DejaVuSans-7a" d="M 353 3500 
L 3084 3500 
L 3084 2975 
L 922 459 
L 3084 459 
L 3084 0 
L 275 0 
L 275 525 
L 2438 3041 
L 353 3041 
L 353 3500 
z
" transform="scale(0.015625)"/>
       <path id="DejaVuSans-5b" d="M 550 4863 
L 1875 4863 
L 1875 4416 
L 1125 4416 
L 1125 -397 
L 1875 -397 
L 1875 -844 
L 550 -844 
L 550 4863 
z
" transform="scale(0.015625)"/>
       <path id="DejaVuSans-6b" d="M 581 4863 
L 1159 4863 
L 1159 1991 
L 2875 3500 
L 3609 3500 
L 1753 1863 
L 3688 0 
L 2938 0 
L 1159 1709 
L 1159 0 
L 581 0 
L 581 4863 
z
" transform="scale(0.015625)"/>
       <path id="DejaVuSans-42" d="M 1259 2228 
L 1259 519 
L 2272 519 
Q 2781 519 3026 730 
Q 3272 941 3272 1375 
Q 3272 1813 3026 2020 
Q 2781 2228 2272 2228 
L 1259 2228 
z
M 1259 4147 
L 1259 2741 
L 2194 2741 
Q 2656 2741 2882 2914 
Q 3109 3088 3109 3444 
Q 3109 3797 2882 3972 
Q 2656 4147 2194 4147 
L 1259 4147 
z
M 628 4666 
L 2241 4666 
Q 2963 4666 3353 4366 
Q 3744 4066 3744 3513 
Q 3744 3084 3544 2831 
Q 3344 2578 2956 2516 
Q 3422 2416 3680 2098 
Q 3938 1781 3938 1306 
Q 3938 681 3513 340 
Q 3088 0 2303 0 
L 628 0 
L 628 4666 
z
" transform="scale(0.015625)"/>
       <path id="DejaVuSans-5d" d="M 1947 4863 
L 1947 -844 
L 622 -844 
L 622 -397 
L 1369 -397 
L 1369 4416 
L 622 4416 
L 622 4863 
L 1947 4863 
z
" transform="scale(0.015625)"/>
      </defs>
      <use xlink:href="#DejaVuSans-46"/>
      <use xlink:href="#DejaVuSans-69" x="50.269531"/>
      <use xlink:href="#DejaVuSans-6c" x="78.052734"/>
      <use xlink:href="#DejaVuSans-65" x="105.835938"/>
      <use xlink:href="#DejaVuSans-20" x="167.359375"/>
      <use xlink:href="#DejaVuSans-73" x="199.146484"/>
      <use xlink:href="#DejaVuSans-69" x="251.246094"/>
      <use xlink:href="#DejaVuSans-7a" x="279.029297"/>
      <use xlink:href="#DejaVuSans-65" x="331.519531"/>
      <use xlink:href="#DejaVuSans-20" x="393.042969"/>
      <use xlink:href="#DejaVuSans-5b" x="424.830078"/>
      <use xlink:href="#DejaVuSans-6b" x="463.84375"/>
      <use xlink:href="#DejaVuSans-42" x="521.753906"/>
      <use xlink:href="#DejaVuSans-5d" x="590.357422"/>
     </g>
    </g>
   </g>
   <g id="matplotlib.axis_2">
    <g id="ytick_1">
     <g id="line2d_10">
      <defs>
       <path id="madf82830be" d="M 0 0 
L -9 0 
" style="stroke: #000000; stroke-width: 1.875"/>
      </defs>
      <g>
       <use xlink:href="#madf82830be" x="321.155" y="32.58875" style="stroke: #000000; stroke-width: 1.875"/>
      </g>
     </g>
     <g id="text_11">
      <!-- latex_dvipdfm -->
      <g transform="translate(191.956172 38.857461) scale(0.165 -0.165)">
       <defs>
        <path id="DejaVuSans-61" d="M 2194 1759 
Q 1497 1759 1228 1600 
Q 959 1441 959 1056 
Q 959 750 1161 570 
Q 1363 391 1709 391 
Q 2188 391 2477 730 
Q 2766 1069 2766 1631 
L 2766 1759 
L 2194 1759 
z
M 3341 1997 
L 3341 0 
L 2766 0 
L 2766 531 
Q 2569 213 2275 61 
Q 1981 -91 1556 -91 
Q 1019 -91 701 211 
Q 384 513 384 1019 
Q 384 1609 779 1909 
Q 1175 2209 1959 2209 
L 2766 2209 
L 2766 2266 
Q 2766 2663 2505 2880 
Q 2244 3097 1772 3097 
Q 1472 3097 1187 3025 
Q 903 2953 641 2809 
L 641 3341 
Q 956 3463 1253 3523 
Q 1550 3584 1831 3584 
Q 2591 3584 2966 3190 
Q 3341 2797 3341 1997 
z
" transform="scale(0.015625)"/>
        <path id="DejaVuSans-74" d="M 1172 4494 
L 1172 3500 
L 2356 3500 
L 2356 3053 
L 1172 3053 
L 1172 1153 
Q 1172 725 1289 603 
Q 1406 481 1766 481 
L 2356 481 
L 2356 0 
L 1766 0 
Q 1100 0 847 248 
Q 594 497 594 1153 
L 594 3053 
L 172 3053 
L 172 3500 
L 594 3500 
L 594 4494 
L 1172 4494 
z
" transform="scale(0.015625)"/>
        <path id="DejaVuSans-78" d="M 3513 3500 
L 2247 1797 
L 3578 0 
L 2900 0 
L 1881 1375 
L 863 0 
L 184 0 
L 1544 1831 
L 300 3500 
L 978 3500 
L 1906 2253 
L 2834 3500 
L 3513 3500 
z
" transform="scale(0.015625)"/>
        <path id="DejaVuSans-5f" d="M 3263 -1063 
L 3263 -1509 
L -63 -1509 
L -63 -1063 
L 3263 -1063 
z
" transform="scale(0.015625)"/>
        <path id="DejaVuSans-64" d="M 2906 2969 
L 2906 4863 
L 3481 4863 
L 3481 0 
L 2906 0 
L 2906 525 
Q 2725 213 2448 61 
Q 2172 -91 1784 -91 
Q 1150 -91 751 415 
Q 353 922 353 1747 
Q 353 2572 751 3078 
Q 1150 3584 1784 3584 
Q 2172 3584 2448 3432 
Q 2725 3281 2906 2969 
z
M 947 1747 
Q 947 1113 1208 752 
Q 1469 391 1925 391 
Q 2381 391 2643 752 
Q 2906 1113 2906 1747 
Q 2906 2381 2643 2742 
Q 2381 3103 1925 3103 
Q 1469 3103 1208 2742 
Q 947 2381 947 1747 
z
" transform="scale(0.015625)"/>
        <path id="DejaVuSans-76" d="M 191 3500 
L 800 3500 
L 1894 563 
L 2988 3500 
L 3597 3500 
L 2284 0 
L 1503 0 
L 191 3500 
z
" transform="scale(0.015625)"/>
        <path id="DejaVuSans-70" d="M 1159 525 
L 1159 -1331 
L 581 -1331 
L 581 3500 
L 1159 3500 
L 1159 2969 
Q 1341 3281 1617 3432 
Q 1894 3584 2278 3584 
Q 2916 3584 3314 3078 
Q 3713 2572 3713 1747 
Q 3713 922 3314 415 
Q 2916 -91 2278 -91 
Q 1894 -91 1617 61 
Q 1341 213 1159 525 
z
M 3116 1747 
Q 3116 2381 2855 2742 
Q 2594 3103 2138 3103 
Q 1681 3103 1420 2742 
Q 1159 2381 1159 1747 
Q 1159 1113 1420 752 
Q 1681 391 2138 391 
Q 2594 391 2855 752 
Q 3116 1113 3116 1747 
z
" transform="scale(0.015625)"/>
        <path id="DejaVuSans-66" d="M 2375 4863 
L 2375 4384 
L 1825 4384 
Q 1516 4384 1395 4259 
Q 1275 4134 1275 3809 
L 1275 3500 
L 2222 3500 
L 2222 3053 
L 1275 3053 
L 1275 0 
L 697 0 
L 697 3053 
L 147 3053 
L 147 3500 
L 697 3500 
L 697 3744 
Q 697 4328 969 4595 
Q 1241 4863 1831 4863 
L 2375 4863 
z
" transform="scale(0.015625)"/>
        <path id="DejaVuSans-6d" d="M 3328 2828 
Q 3544 3216 3844 3400 
Q 4144 3584 4550 3584 
Q 5097 3584 5394 3201 
Q 5691 2819 5691 2113 
L 5691 0 
L 5113 0 
L 5113 2094 
Q 5113 2597 4934 2840 
Q 4756 3084 4391 3084 
Q 3944 3084 3684 2787 
Q 3425 2491 3425 1978 
L 3425 0 
L 2847 0 
L 2847 2094 
Q 2847 2600 2669 2842 
Q 2491 3084 2119 3084 
Q 1678 3084 1418 2786 
Q 1159 2488 1159 1978 
L 1159 0 
L 581 0 
L 581 3500 
L 1159 3500 
L 1159 2956 
Q 1356 3278 1631 3431 
Q 1906 3584 2284 3584 
Q 2666 3584 2933 3390 
Q 3200 3197 3328 2828 
z
" transform="scale(0.015625)"/>
       </defs>
       <use xlink:href="#DejaVuSans-6c"/>
       <use xlink:href="#DejaVuSans-61" x="27.783203"/>
       <use xlink:href="#DejaVuSans-74" x="89.0625"/>
       <use xlink:href="#DejaVuSans-65" x="128.271484"/>
       <use xlink:href="#DejaVuSans-78" x="188.044922"/>
       <use xlink:href="#DejaVuSans-5f" x="247.224609"/>
       <use xlink:href="#DejaVuSans-64" x="297.224609"/>
       <use xlink:href="#DejaVuSans-76" x="360.701172"/>
       <use xlink:href="#DejaVuSans-69" x="419.880859"/>
       <use xlink:href="#DejaVuSans-70" x="447.664062"/>
       <use xlink:href="#DejaVuSans-64" x="511.140625"/>
       <use xlink:href="#DejaVuSans-66" x="574.617188"/>
       <use xlink:href="#DejaVuSans-6d" x="609.822266"/>
      </g>
     </g>
    </g>
    <g id="ytick_2">
     <g id="line2d_11">
      <g>
       <use xlink:href="#madf82830be" x="321.155" y="58.88625" style="stroke: #000000; stroke-width: 1.875"/>
      </g>
     </g>
     <g id="text_12">
      <!-- latex_dvipdfmx -->
      <g transform="translate(182.190234 65.154961) scale(0.165 -0.165)">
       <use xlink:href="#DejaVuSans-6c"/>
       <use xlink:href="#DejaVuSans-61" x="27.783203"/>
       <use xlink:href="#DejaVuSans-74" x="89.0625"/>
       <use xlink:href="#DejaVuSans-65" x="128.271484"/>
       <use xlink:href="#DejaVuSans-78" x="188.044922"/>
       <use xlink:href="#DejaVuSans-5f" x="247.224609"/>
       <use xlink:href="#DejaVuSans-64" x="297.224609"/>
       <use xlink:href="#DejaVuSans-76" x="360.701172"/>
       <use xlink:href="#DejaVuSans-69" x="419.880859"/>
       <use xlink:href="#DejaVuSans-70" x="447.664062"/>
       <use xlink:href="#DejaVuSans-64" x="511.140625"/>
       <use xlink:href="#DejaVuSans-66" x="574.617188"/>
       <use xlink:href="#DejaVuSans-6d" x="609.822266"/>
       <use xlink:href="#DejaVuSans-78" x="707.234375"/>
      </g>
     </g>
    </g>
    <g id="ytick_3">
     <g id="line2d_12">
      <g>
       <use xlink:href="#madf82830be" x="321.155" y="85.18375" style="stroke: #000000; stroke-width: 1.875"/>
      </g>
     </g>
     <g id="text_13">
      <!-- latex_dvipdfmx_z9 -->
      <g transform="translate(154.782187 91.452461) scale(0.165 -0.165)">
       <defs>
        <path id="DejaVuSans-39" d="M 703 97 
L 703 672 
Q 941 559 1184 500 
Q 1428 441 1663 441 
Q 2288 441 2617 861 
Q 2947 1281 2994 2138 
Q 2813 1869 2534 1725 
Q 2256 1581 1919 1581 
Q 1219 1581 811 2004 
Q 403 2428 403 3163 
Q 403 3881 828 4315 
Q 1253 4750 1959 4750 
Q 2769 4750 3195 4129 
Q 3622 3509 3622 2328 
Q 3622 1225 3098 567 
Q 2575 -91 1691 -91 
Q 1453 -91 1209 -44 
Q 966 3 703 97 
z
M 1959 2075 
Q 2384 2075 2632 2365 
Q 2881 2656 2881 3163 
Q 2881 3666 2632 3958 
Q 2384 4250 1959 4250 
Q 1534 4250 1286 3958 
Q 1038 3666 1038 3163 
Q 1038 2656 1286 2365 
Q 1534 2075 1959 2075 
z
" transform="scale(0.015625)"/>
       </defs>
       <use xlink:href="#DejaVuSans-6c"/>
       <use xlink:href="#DejaVuSans-61" x="27.783203"/>
       <use xlink:href="#DejaVuSans-74" x="89.0625"/>
       <use xlink:href="#DejaVuSans-65" x="128.271484"/>
       <use xlink:href="#DejaVuSans-78" x="188.044922"/>
       <use xlink:href="#DejaVuSans-5f" x="247.224609"/>
       <use xlink:href="#DejaVuSans-64" x="297.224609"/>
       <use xlink:href="#DejaVuSans-76" x="360.701172"/>
       <use xlink:href="#DejaVuSans-69" x="419.880859"/>
       <use xlink:href="#DejaVuSans-70" x="447.664062"/>
       <use xlink:href="#DejaVuSans-64" x="511.140625"/>
       <use xlink:href="#DejaVuSans-66" x="574.617188"/>
       <use xlink:href="#DejaVuSans-6d" x="609.822266"/>
       <use xlink:href="#DejaVuSans-78" x="707.234375"/>
       <use xlink:href="#DejaVuSans-5f" x="766.414062"/>
       <use xlink:href="#DejaVuSans-7a" x="816.414062"/>
       <use xlink:href="#DejaVuSans-39" x="868.904297"/>
      </g>
     </g>
    </g>
    <g id="ytick_4">
     <g id="line2d_13">
      <g>
       <use xlink:href="#madf82830be" x="321.155" y="111.48125" style="stroke: #000000; stroke-width: 1.875"/>
      </g>
     </g>
     <g id="text_14">
      <!-- ramdisk -->
      <g transform="translate(242.479687 117.749961) scale(0.165 -0.165)">
       <defs>
        <path id="DejaVuSans-72" d="M 2631 2963 
Q 2534 3019 2420 3045 
Q 2306 3072 2169 3072 
Q 1681 3072 1420 2755 
Q 1159 2438 1159 1844 
L 1159 0 
L 581 0 
L 581 3500 
L 1159 3500 
L 1159 2956 
Q 1341 3275 1631 3429 
Q 1922 3584 2338 3584 
Q 2397 3584 2469 3576 
Q 2541 3569 2628 3553 
L 2631 2963 
z
" transform="scale(0.015625)"/>
       </defs>
       <use xlink:href="#DejaVuSans-72"/>
       <use xlink:href="#DejaVuSans-61" x="41.113281"/>
       <use xlink:href="#DejaVuSans-6d" x="102.392578"/>
       <use xlink:href="#DejaVuSans-64" x="199.804688"/>
       <use xlink:href="#DejaVuSans-69" x="263.28125"/>
       <use xlink:href="#DejaVuSans-73" x="291.064453"/>
       <use xlink:href="#DejaVuSans-6b" x="343.164062"/>
      </g>
     </g>
    </g>
    <g id="ytick_5">
     <g id="line2d_14">
      <g>
       <use xlink:href="#madf82830be" x="321.155" y="137.77875" style="stroke: #000000; stroke-width: 1.875"/>
      </g>
     </g>
     <g id="text_15">
      <!-- latex_dvips_batchmode_draftmode -->
      <g transform="translate(19.683281 144.047461) scale(0.165 -0.165)">
       <defs>
        <path id="DejaVuSans-62" d="M 3116 1747 
Q 3116 2381 2855 2742 
Q 2594 3103 2138 3103 
Q 1681 3103 1420 2742 
Q 1159 2381 1159 1747 
Q 1159 1113 1420 752 
Q 1681 391 2138 391 
Q 2594 391 2855 752 
Q 3116 1113 3116 1747 
z
M 1159 2969 
Q 1341 3281 1617 3432 
Q 1894 3584 2278 3584 
Q 2916 3584 3314 3078 
Q 3713 2572 3713 1747 
Q 3713 922 3314 415 
Q 2916 -91 2278 -91 
Q 1894 -91 1617 61 
Q 1341 213 1159 525 
L 1159 0 
L 581 0 
L 581 4863 
L 1159 4863 
L 1159 2969 
z
" transform="scale(0.015625)"/>
        <path id="DejaVuSans-63" d="M 3122 3366 
L 3122 2828 
Q 2878 2963 2633 3030 
Q 2388 3097 2138 3097 
Q 1578 3097 1268 2742 
Q 959 2388 959 1747 
Q 959 1106 1268 751 
Q 1578 397 2138 397 
Q 2388 397 2633 464 
Q 2878 531 3122 666 
L 3122 134 
Q 2881 22 2623 -34 
Q 2366 -91 2075 -91 
Q 1284 -91 818 406 
Q 353 903 353 1747 
Q 353 2603 823 3093 
Q 1294 3584 2113 3584 
Q 2378 3584 2631 3529 
Q 2884 3475 3122 3366 
z
" transform="scale(0.015625)"/>
        <path id="DejaVuSans-68" d="M 3513 2113 
L 3513 0 
L 2938 0 
L 2938 2094 
Q 2938 2591 2744 2837 
Q 2550 3084 2163 3084 
Q 1697 3084 1428 2787 
Q 1159 2491 1159 1978 
L 1159 0 
L 581 0 
L 581 4863 
L 1159 4863 
L 1159 2956 
Q 1366 3272 1645 3428 
Q 1925 3584 2291 3584 
Q 2894 3584 3203 3211 
Q 3513 2838 3513 2113 
z
" transform="scale(0.015625)"/>
        <path id="DejaVuSans-6f" d="M 1959 3097 
Q 1497 3097 1228 2736 
Q 959 2375 959 1747 
Q 959 1119 1226 758 
Q 1494 397 1959 397 
Q 2419 397 2687 759 
Q 2956 1122 2956 1747 
Q 2956 2369 2687 2733 
Q 2419 3097 1959 3097 
z
M 1959 3584 
Q 2709 3584 3137 3096 
Q 3566 2609 3566 1747 
Q 3566 888 3137 398 
Q 2709 -91 1959 -91 
Q 1206 -91 779 398 
Q 353 888 353 1747 
Q 353 2609 779 3096 
Q 1206 3584 1959 3584 
z
" transform="scale(0.015625)"/>
       </defs>
       <use xlink:href="#DejaVuSans-6c"/>
       <use xlink:href="#DejaVuSans-61" x="27.783203"/>
       <use xlink:href="#DejaVuSans-74" x="89.0625"/>
       <use xlink:href="#DejaVuSans-65" x="128.271484"/>
       <use xlink:href="#DejaVuSans-78" x="188.044922"/>
       <use xlink:href="#DejaVuSans-5f" x="247.224609"/>
       <use xlink:href="#DejaVuSans-64" x="297.224609"/>
       <use xlink:href="#DejaVuSans-76" x="360.701172"/>
       <use xlink:href="#DejaVuSans-69" x="419.880859"/>
       <use xlink:href="#DejaVuSans-70" x="447.664062"/>
       <use xlink:href="#DejaVuSans-73" x="511.140625"/>
       <use xlink:href="#DejaVuSans-5f" x="563.240234"/>
       <use xlink:href="#DejaVuSans-62" x="613.240234"/>
       <use xlink:href="#DejaVuSans-61" x="676.716797"/>
       <use xlink:href="#DejaVuSans-74" x="737.996094"/>
       <use xlink:href="#DejaVuSans-63" x="777.205078"/>
       <use xlink:href="#DejaVuSans-68" x="832.185547"/>
       <use xlink:href="#DejaVuSans-6d" x="895.564453"/>
       <use xlink:href="#DejaVuSans-6f" x="992.976562"/>
       <use xlink:href="#DejaVuSans-64" x="1054.158203"/>
       <use xlink:href="#DejaVuSans-65" x="1117.634766"/>
       <use xlink:href="#DejaVuSans-5f" x="1179.158203"/>
       <use xlink:href="#DejaVuSans-64" x="1229.158203"/>
       <use xlink:href="#DejaVuSans-72" x="1292.634766"/>
       <use xlink:href="#DejaVuSans-61" x="1333.748047"/>
       <use xlink:href="#DejaVuSans-66" x="1395.027344"/>
       <use xlink:href="#DejaVuSans-74" x="1428.482422"/>
       <use xlink:href="#DejaVuSans-6d" x="1467.691406"/>
       <use xlink:href="#DejaVuSans-6f" x="1565.103516"/>
       <use xlink:href="#DejaVuSans-64" x="1626.285156"/>
       <use xlink:href="#DejaVuSans-65" x="1689.761719"/>
      </g>
     </g>
    </g>
    <g id="ytick_6">
     <g id="line2d_15">
      <g>
       <use xlink:href="#madf82830be" x="321.155" y="164.07625" style="stroke: #000000; stroke-width: 1.875"/>
      </g>
     </g>
     <g id="text_16">
      <!-- latex_dvips -->
      <g transform="translate(215.716172 170.344961) scale(0.165 -0.165)">
       <use xlink:href="#DejaVuSans-6c"/>
       <use xlink:href="#DejaVuSans-61" x="27.783203"/>
       <use xlink:href="#DejaVuSans-74" x="89.0625"/>
       <use xlink:href="#DejaVuSans-65" x="128.271484"/>
       <use xlink:href="#DejaVuSans-78" x="188.044922"/>
       <use xlink:href="#DejaVuSans-5f" x="247.224609"/>
       <use xlink:href="#DejaVuSans-64" x="297.224609"/>
       <use xlink:href="#DejaVuSans-76" x="360.701172"/>
       <use xlink:href="#DejaVuSans-69" x="419.880859"/>
       <use xlink:href="#DejaVuSans-70" x="447.664062"/>
       <use xlink:href="#DejaVuSans-73" x="511.140625"/>
      </g>
     </g>
    </g>
    <g id="ytick_7">
     <g id="line2d_16">
      <g>
       <use xlink:href="#madf82830be" x="321.155" y="190.37375" style="stroke: #000000; stroke-width: 1.875"/>
      </g>
     </g>
     <g id="text_17">
      <!-- preamble -->
      <g transform="translate(230.220703 196.642461) scale(0.165 -0.165)">
       <use xlink:href="#DejaVuSans-70"/>
       <use xlink:href="#DejaVuSans-72" x="63.476562"/>
       <use xlink:href="#DejaVuSans-65" x="102.339844"/>
       <use xlink:href="#DejaVuSans-61" x="163.863281"/>
       <use xlink:href="#DejaVuSans-6d" x="225.142578"/>
       <use xlink:href="#DejaVuSans-62" x="322.554688"/>
       <use xlink:href="#DejaVuSans-6c" x="386.03125"/>
       <use xlink:href="#DejaVuSans-65" x="413.814453"/>
      </g>
     </g>
    </g>
    <g id="ytick_8">
     <g id="line2d_17">
      <g>
       <use xlink:href="#madf82830be" x="321.155" y="216.67125" style="stroke: #000000; stroke-width: 1.875"/>
      </g>
     </g>
     <g id="text_18">
      <!-- latex_dvipdfmx_z0 -->
      <g transform="translate(154.782187 222.939961) scale(0.165 -0.165)">
       <use xlink:href="#DejaVuSans-6c"/>
       <use xlink:href="#DejaVuSans-61" x="27.783203"/>
       <use xlink:href="#DejaVuSans-74" x="89.0625"/>
       <use xlink:href="#DejaVuSans-65" x="128.271484"/>
       <use xlink:href="#DejaVuSans-78" x="188.044922"/>
       <use xlink:href="#DejaVuSans-5f" x="247.224609"/>
       <use xlink:href="#DejaVuSans-64" x="297.224609"/>
       <use xlink:href="#DejaVuSans-76" x="360.701172"/>
       <use xlink:href="#DejaVuSans-69" x="419.880859"/>
       <use xlink:href="#DejaVuSans-70" x="447.664062"/>
       <use xlink:href="#DejaVuSans-64" x="511.140625"/>
       <use xlink:href="#DejaVuSans-66" x="574.617188"/>
       <use xlink:href="#DejaVuSans-6d" x="609.822266"/>
       <use xlink:href="#DejaVuSans-78" x="707.234375"/>
       <use xlink:href="#DejaVuSans-5f" x="766.414062"/>
       <use xlink:href="#DejaVuSans-7a" x="816.414062"/>
       <use xlink:href="#DejaVuSans-30" x="868.904297"/>
      </g>
     </g>
    </g>
    <g id="ytick_9">
     <g id="line2d_18">
      <g>
       <use xlink:href="#madf82830be" x="321.155" y="242.96875" style="stroke: #000000; stroke-width: 1.875"/>
      </g>
     </g>
     <g id="text_19">
      <!-- scons -->
      <g transform="translate(261.838828 249.237461) scale(0.165 -0.165)">
       <defs>
        <path id="DejaVuSans-6e" d="M 3513 2113 
L 3513 0 
L 2938 0 
L 2938 2094 
Q 2938 2591 2744 2837 
Q 2550 3084 2163 3084 
Q 1697 3084 1428 2787 
Q 1159 2491 1159 1978 
L 1159 0 
L 581 0 
L 581 3500 
L 1159 3500 
L 1159 2956 
Q 1366 3272 1645 3428 
Q 1925 3584 2291 3584 
Q 2894 3584 3203 3211 
Q 3513 2838 3513 2113 
z
" transform="scale(0.015625)"/>
       </defs>
       <use xlink:href="#DejaVuSans-73"/>
       <use xlink:href="#DejaVuSans-63" x="52.099609"/>
       <use xlink:href="#DejaVuSans-6f" x="107.080078"/>
       <use xlink:href="#DejaVuSans-6e" x="168.261719"/>
       <use xlink:href="#DejaVuSans-73" x="231.640625"/>
      </g>
     </g>
    </g>
    <g id="ytick_10">
     <g id="line2d_19">
      <g>
       <use xlink:href="#madf82830be" x="321.155" y="269.26625" style="stroke: #000000; stroke-width: 1.875"/>
      </g>
     </g>
     <g id="text_20">
      <!-- latexrun -->
      <g transform="translate(240.164531 275.534961) scale(0.165 -0.165)">
       <defs>
        <path id="DejaVuSans-75" d="M 544 1381 
L 544 3500 
L 1119 3500 
L 1119 1403 
Q 1119 906 1312 657 
Q 1506 409 1894 409 
Q 2359 409 2629 706 
Q 2900 1003 2900 1516 
L 2900 3500 
L 3475 3500 
L 3475 0 
L 2900 0 
L 2900 538 
Q 2691 219 2414 64 
Q 2138 -91 1772 -91 
Q 1169 -91 856 284 
Q 544 659 544 1381 
z
M 1991 3584 
L 1991 3584 
z
" transform="scale(0.015625)"/>
       </defs>
       <use xlink:href="#DejaVuSans-6c"/>
       <use xlink:href="#DejaVuSans-61" x="27.783203"/>
       <use xlink:href="#DejaVuSans-74" x="89.0625"/>
       <use xlink:href="#DejaVuSans-65" x="128.271484"/>
       <use xlink:href="#DejaVuSans-78" x="188.044922"/>
       <use xlink:href="#DejaVuSans-72" x="247.224609"/>
       <use xlink:href="#DejaVuSans-75" x="288.337891"/>
       <use xlink:href="#DejaVuSans-6e" x="351.716797"/>
      </g>
     </g>
    </g>
    <g id="ytick_11">
     <g id="line2d_20">
      <g>
       <use xlink:href="#madf82830be" x="321.155" y="295.56375" style="stroke: #000000; stroke-width: 1.875"/>
      </g>
     </g>
     <g id="text_21">
      <!-- latexrun_ramdisk -->
      <g transform="translate(165.739219 301.832461) scale(0.165 -0.165)">
       <use xlink:href="#DejaVuSans-6c"/>
       <use xlink:href="#DejaVuSans-61" x="27.783203"/>
       <use xlink:href="#DejaVuSans-74" x="89.0625"/>
       <use xlink:href="#DejaVuSans-65" x="128.271484"/>
       <use xlink:href="#DejaVuSans-78" x="188.044922"/>
       <use xlink:href="#DejaVuSans-72" x="247.224609"/>
       <use xlink:href="#DejaVuSans-75" x="288.337891"/>
       <use xlink:href="#DejaVuSans-6e" x="351.716797"/>
       <use xlink:href="#DejaVuSans-5f" x="415.095703"/>
       <use xlink:href="#DejaVuSans-72" x="465.095703"/>
       <use xlink:href="#DejaVuSans-61" x="506.208984"/>
       <use xlink:href="#DejaVuSans-6d" x="567.488281"/>
       <use xlink:href="#DejaVuSans-64" x="664.900391"/>
       <use xlink:href="#DejaVuSans-69" x="728.376953"/>
       <use xlink:href="#DejaVuSans-73" x="756.160156"/>
       <use xlink:href="#DejaVuSans-6b" x="808.259766"/>
      </g>
     </g>
    </g>
    <g id="ytick_12">
     <g id="line2d_21">
      <g>
       <use xlink:href="#madf82830be" x="321.155" y="321.86125" style="stroke: #000000; stroke-width: 1.875"/>
      </g>
     </g>
     <g id="text_22">
      <!-- latexmk_overleaf -->
      <g transform="translate(166.530703 328.129961) scale(0.165 -0.165)">
       <use xlink:href="#DejaVuSans-6c"/>
       <use xlink:href="#DejaVuSans-61" x="27.783203"/>
       <use xlink:href="#DejaVuSans-74" x="89.0625"/>
       <use xlink:href="#DejaVuSans-65" x="128.271484"/>
       <use xlink:href="#DejaVuSans-78" x="188.044922"/>
       <use xlink:href="#DejaVuSans-6d" x="247.224609"/>
       <use xlink:href="#DejaVuSans-6b" x="344.636719"/>
       <use xlink:href="#DejaVuSans-5f" x="402.546875"/>
       <use xlink:href="#DejaVuSans-6f" x="452.546875"/>
       <use xlink:href="#DejaVuSans-76" x="513.728516"/>
       <use xlink:href="#DejaVuSans-65" x="572.908203"/>
       <use xlink:href="#DejaVuSans-72" x="634.431641"/>
       <use xlink:href="#DejaVuSans-6c" x="675.544922"/>
       <use xlink:href="#DejaVuSans-65" x="703.328125"/>
       <use xlink:href="#DejaVuSans-61" x="764.851562"/>
       <use xlink:href="#DejaVuSans-66" x="826.130859"/>
      </g>
     </g>
    </g>
    <g id="ytick_13">
     <g id="line2d_22">
      <g>
       <use xlink:href="#madf82830be" x="321.155" y="348.15875" style="stroke: #000000; stroke-width: 1.875"/>
      </g>
     </g>
     <g id="text_23">
      <!-- latexmk_batchmode_draftmode -->
      <g transform="translate(46.201875 354.427461) scale(0.165 -0.165)">
       <use xlink:href="#DejaVuSans-6c"/>
       <use xlink:href="#DejaVuSans-61" x="27.783203"/>
       <use xlink:href="#DejaVuSans-74" x="89.0625"/>
       <use xlink:href="#DejaVuSans-65" x="128.271484"/>
       <use xlink:href="#DejaVuSans-78" x="188.044922"/>
       <use xlink:href="#DejaVuSans-6d" x="247.224609"/>
       <use xlink:href="#DejaVuSans-6b" x="344.636719"/>
       <use xlink:href="#DejaVuSans-5f" x="402.546875"/>
       <use xlink:href="#DejaVuSans-62" x="452.546875"/>
       <use xlink:href="#DejaVuSans-61" x="516.023438"/>
       <use xlink:href="#DejaVuSans-74" x="577.302734"/>
       <use xlink:href="#DejaVuSans-63" x="616.511719"/>
       <use xlink:href="#DejaVuSans-68" x="671.492188"/>
       <use xlink:href="#DejaVuSans-6d" x="734.871094"/>
       <use xlink:href="#DejaVuSans-6f" x="832.283203"/>
       <use xlink:href="#DejaVuSans-64" x="893.464844"/>
       <use xlink:href="#DejaVuSans-65" x="956.941406"/>
       <use xlink:href="#DejaVuSans-5f" x="1018.464844"/>
       <use xlink:href="#DejaVuSans-64" x="1068.464844"/>
       <use xlink:href="#DejaVuSans-72" x="1131.941406"/>
       <use xlink:href="#DejaVuSans-61" x="1173.054688"/>
       <use xlink:href="#DejaVuSans-66" x="1234.333984"/>
       <use xlink:href="#DejaVuSans-74" x="1267.789062"/>
       <use xlink:href="#DejaVuSans-6d" x="1306.998047"/>
       <use xlink:href="#DejaVuSans-6f" x="1404.410156"/>
       <use xlink:href="#DejaVuSans-64" x="1465.591797"/>
       <use xlink:href="#DejaVuSans-65" x="1529.068359"/>
      </g>
     </g>
    </g>
    <g id="ytick_14">
     <g id="line2d_23">
      <g>
       <use xlink:href="#madf82830be" x="321.155" y="374.45625" style="stroke: #000000; stroke-width: 1.875"/>
      </g>
     </g>
     <g id="text_24">
      <!-- rubber -->
      <g transform="translate(253.529531 380.724961) scale(0.165 -0.165)">
       <use xlink:href="#DejaVuSans-72"/>
       <use xlink:href="#DejaVuSans-75" x="41.113281"/>
       <use xlink:href="#DejaVuSans-62" x="104.492188"/>
       <use xlink:href="#DejaVuSans-62" x="167.96875"/>
       <use xlink:href="#DejaVuSans-65" x="231.445312"/>
       <use xlink:href="#DejaVuSans-72" x="292.96875"/>
      </g>
     </g>
    </g>
    <g id="ytick_15">
     <g id="line2d_24">
      <g>
       <use xlink:href="#madf82830be" x="321.155" y="400.75375" style="stroke: #000000; stroke-width: 1.875"/>
      </g>
     </g>
     <g id="text_25">
      <!-- original -->
      <g transform="translate(246.981094 407.022461) scale(0.165 -0.165)">
       <defs>
        <path id="DejaVuSans-67" d="M 2906 1791 
Q 2906 2416 2648 2759 
Q 2391 3103 1925 3103 
Q 1463 3103 1205 2759 
Q 947 2416 947 1791 
Q 947 1169 1205 825 
Q 1463 481 1925 481 
Q 2391 481 2648 825 
Q 2906 1169 2906 1791 
z
M 3481 434 
Q 3481 -459 3084 -895 
Q 2688 -1331 1869 -1331 
Q 1566 -1331 1297 -1286 
Q 1028 -1241 775 -1147 
L 775 -588 
Q 1028 -725 1275 -790 
Q 1522 -856 1778 -856 
Q 2344 -856 2625 -561 
Q 2906 -266 2906 331 
L 2906 616 
Q 2728 306 2450 153 
Q 2172 0 1784 0 
Q 1141 0 747 490 
Q 353 981 353 1791 
Q 353 2603 747 3093 
Q 1141 3584 1784 3584 
Q 2172 3584 2450 3431 
Q 2728 3278 2906 2969 
L 2906 3500 
L 3481 3500 
L 3481 434 
z
" transform="scale(0.015625)"/>
       </defs>
       <use xlink:href="#DejaVuSans-6f"/>
       <use xlink:href="#DejaVuSans-72" x="61.181641"/>
       <use xlink:href="#DejaVuSans-69" x="102.294922"/>
       <use xlink:href="#DejaVuSans-67" x="130.078125"/>
       <use xlink:href="#DejaVuSans-69" x="193.554688"/>
       <use xlink:href="#DejaVuSans-6e" x="221.337891"/>
       <use xlink:href="#DejaVuSans-61" x="284.716797"/>
       <use xlink:href="#DejaVuSans-6c" x="345.996094"/>
      </g>
     </g>
    </g>
    <g id="ytick_16">
     <g id="line2d_25">
      <g>
       <use xlink:href="#madf82830be" x="321.155" y="427.05125" style="stroke: #000000; stroke-width: 1.875"/>
      </g>
     </g>
     <g id="text_26">
      <!-- arara -->
      <g transform="translate(264.754687 433.319961) scale(0.165 -0.165)">
       <use xlink:href="#DejaVuSans-61"/>
       <use xlink:href="#DejaVuSans-72" x="61.279297"/>
       <use xlink:href="#DejaVuSans-61" x="102.392578"/>
       <use xlink:href="#DejaVuSans-72" x="163.671875"/>
       <use xlink:href="#DejaVuSans-61" x="204.785156"/>
      </g>
     </g>
    </g>
    <g id="ytick_17">
     <g id="line2d_26">
      <g>
       <use xlink:href="#madf82830be" x="321.155" y="453.34875" style="stroke: #000000; stroke-width: 1.875"/>
      </g>
     </g>
     <g id="text_27">
      <!-- batchmode_draftmode -->
      <g transform="translate(120.872109 459.617461) scale(0.165 -0.165)">
       <use xlink:href="#DejaVuSans-62"/>
       <use xlink:href="#DejaVuSans-61" x="63.476562"/>
       <use xlink:href="#DejaVuSans-74" x="124.755859"/>
       <use xlink:href="#DejaVuSans-63" x="163.964844"/>
       <use xlink:href="#DejaVuSans-68" x="218.945312"/>
       <use xlink:href="#DejaVuSans-6d" x="282.324219"/>
       <use xlink:href="#DejaVuSans-6f" x="379.736328"/>
       <use xlink:href="#DejaVuSans-64" x="440.917969"/>
       <use xlink:href="#DejaVuSans-65" x="504.394531"/>
       <use xlink:href="#DejaVuSans-5f" x="565.917969"/>
       <use xlink:href="#DejaVuSans-64" x="615.917969"/>
       <use xlink:href="#DejaVuSans-72" x="679.394531"/>
       <use xlink:href="#DejaVuSans-61" x="720.507812"/>
       <use xlink:href="#DejaVuSans-66" x="781.787109"/>
       <use xlink:href="#DejaVuSans-74" x="815.242188"/>
       <use xlink:href="#DejaVuSans-6d" x="854.451172"/>
       <use xlink:href="#DejaVuSans-6f" x="951.863281"/>
       <use xlink:href="#DejaVuSans-64" x="1013.044922"/>
       <use xlink:href="#DejaVuSans-65" x="1076.521484"/>
      </g>
     </g>
    </g>
    <g id="ytick_18">
     <g id="line2d_27">
      <g>
       <use xlink:href="#madf82830be" x="321.155" y="479.64625" style="stroke: #000000; stroke-width: 1.875"/>
      </g>
     </g>
     <g id="text_28">
      <!-- batchmode -->
      <g transform="translate(215.275312 485.914961) scale(0.165 -0.165)">
       <use xlink:href="#DejaVuSans-62"/>
       <use xlink:href="#DejaVuSans-61" x="63.476562"/>
       <use xlink:href="#DejaVuSans-74" x="124.755859"/>
       <use xlink:href="#DejaVuSans-63" x="163.964844"/>
       <use xlink:href="#DejaVuSans-68" x="218.945312"/>
       <use xlink:href="#DejaVuSans-6d" x="282.324219"/>
       <use xlink:href="#DejaVuSans-6f" x="379.736328"/>
       <use xlink:href="#DejaVuSans-64" x="440.917969"/>
       <use xlink:href="#DejaVuSans-65" x="504.394531"/>
      </g>
     </g>
    </g>
    <g id="ytick_19">
     <g id="line2d_28">
      <g>
       <use xlink:href="#madf82830be" x="321.155" y="505.94375" style="stroke: #000000; stroke-width: 1.875"/>
      </g>
     </g>
     <g id="text_29">
      <!-- draftmode -->
      <g transform="translate(222.501797 512.212461) scale(0.165 -0.165)">
       <use xlink:href="#DejaVuSans-64"/>
       <use xlink:href="#DejaVuSans-72" x="63.476562"/>
       <use xlink:href="#DejaVuSans-61" x="104.589844"/>
       <use xlink:href="#DejaVuSans-66" x="165.869141"/>
       <use xlink:href="#DejaVuSans-74" x="199.324219"/>
       <use xlink:href="#DejaVuSans-6d" x="238.533203"/>
       <use xlink:href="#DejaVuSans-6f" x="335.945312"/>
       <use xlink:href="#DejaVuSans-64" x="397.126953"/>
       <use xlink:href="#DejaVuSans-65" x="460.603516"/>
      </g>
     </g>
    </g>
    <g id="ytick_20">
     <g id="line2d_29">
      <g>
       <use xlink:href="#madf82830be" x="321.155" y="532.24125" style="stroke: #000000; stroke-width: 1.875"/>
      </g>
     </g>
     <g id="text_30">
      <!-- latexmk_batchmode -->
      <g transform="translate(140.605078 538.509961) scale(0.165 -0.165)">
       <use xlink:href="#DejaVuSans-6c"/>
       <use xlink:href="#DejaVuSans-61" x="27.783203"/>
       <use xlink:href="#DejaVuSans-74" x="89.0625"/>
       <use xlink:href="#DejaVuSans-65" x="128.271484"/>
       <use xlink:href="#DejaVuSans-78" x="188.044922"/>
       <use xlink:href="#DejaVuSans-6d" x="247.224609"/>
       <use xlink:href="#DejaVuSans-6b" x="344.636719"/>
       <use xlink:href="#DejaVuSans-5f" x="402.546875"/>
       <use xlink:href="#DejaVuSans-62" x="452.546875"/>
       <use xlink:href="#DejaVuSans-61" x="516.023438"/>
       <use xlink:href="#DejaVuSans-74" x="577.302734"/>
       <use xlink:href="#DejaVuSans-63" x="616.511719"/>
       <use xlink:href="#DejaVuSans-68" x="671.492188"/>
       <use xlink:href="#DejaVuSans-6d" x="734.871094"/>
       <use xlink:href="#DejaVuSans-6f" x="832.283203"/>
       <use xlink:href="#DejaVuSans-64" x="893.464844"/>
       <use xlink:href="#DejaVuSans-65" x="956.941406"/>
      </g>
     </g>
    </g>
    <g id="ytick_21">
     <g id="line2d_30">
      <g>
       <use xlink:href="#madf82830be" x="321.155" y="558.53875" style="stroke: #000000; stroke-width: 1.875"/>
      </g>
     </g>
     <g id="text_31">
      <!-- latexmk -->
      <g transform="translate(242.234766 564.807461) scale(0.165 -0.165)">
       <use xlink:href="#DejaVuSans-6c"/>
       <use xlink:href="#DejaVuSans-61" x="27.783203"/>
       <use xlink:href="#DejaVuSans-74" x="89.0625"/>
       <use xlink:href="#DejaVuSans-65" x="128.271484"/>
       <use xlink:href="#DejaVuSans-78" x="188.044922"/>
       <use xlink:href="#DejaVuSans-6d" x="247.224609"/>
       <use xlink:href="#DejaVuSans-6b" x="344.636719"/>
      </g>
     </g>
    </g>
    <g id="ytick_22">
     <g id="line2d_31">
      <g>
       <use xlink:href="#madf82830be" x="321.155" y="584.83625" style="stroke: #000000; stroke-width: 1.875"/>
      </g>
     </g>
     <g id="text_32">
      <!-- latexrun_preamble -->
      <g transform="translate(153.480234 591.104961) scale(0.165 -0.165)">
       <use xlink:href="#DejaVuSans-6c"/>
       <use xlink:href="#DejaVuSans-61" x="27.783203"/>
       <use xlink:href="#DejaVuSans-74" x="89.0625"/>
       <use xlink:href="#DejaVuSans-65" x="128.271484"/>
       <use xlink:href="#DejaVuSans-78" x="188.044922"/>
       <use xlink:href="#DejaVuSans-72" x="247.224609"/>
       <use xlink:href="#DejaVuSans-75" x="288.337891"/>
       <use xlink:href="#DejaVuSans-6e" x="351.716797"/>
       <use xlink:href="#DejaVuSans-5f" x="415.095703"/>
       <use xlink:href="#DejaVuSans-70" x="465.095703"/>
       <use xlink:href="#DejaVuSans-72" x="528.572266"/>
       <use xlink:href="#DejaVuSans-65" x="567.435547"/>
       <use xlink:href="#DejaVuSans-61" x="628.958984"/>
       <use xlink:href="#DejaVuSans-6d" x="690.238281"/>
       <use xlink:href="#DejaVuSans-62" x="787.650391"/>
       <use xlink:href="#DejaVuSans-6c" x="851.126953"/>
       <use xlink:href="#DejaVuSans-65" x="878.910156"/>
      </g>
     </g>
    </g>
    <g id="ytick_23">
     <g id="line2d_32">
      <g>
       <use xlink:href="#madf82830be" x="321.155" y="611.13375" style="stroke: #000000; stroke-width: 1.875"/>
      </g>
     </g>
     <g id="text_33">
      <!-- compress_batchmode_draftmode -->
      <g transform="translate(33.151406 617.402461) scale(0.165 -0.165)">
       <use xlink:href="#DejaVuSans-63"/>
       <use xlink:href="#DejaVuSans-6f" x="54.980469"/>
       <use xlink:href="#DejaVuSans-6d" x="116.162109"/>
       <use xlink:href="#DejaVuSans-70" x="213.574219"/>
       <use xlink:href="#DejaVuSans-72" x="277.050781"/>
       <use xlink:href="#DejaVuSans-65" x="315.914062"/>
       <use xlink:href="#DejaVuSans-73" x="377.4375"/>
       <use xlink:href="#DejaVuSans-73" x="429.537109"/>
       <use xlink:href="#DejaVuSans-5f" x="481.636719"/>
       <use xlink:href="#DejaVuSans-62" x="531.636719"/>
       <use xlink:href="#DejaVuSans-61" x="595.113281"/>
       <use xlink:href="#DejaVuSans-74" x="656.392578"/>
       <use xlink:href="#DejaVuSans-63" x="695.601562"/>
       <use xlink:href="#DejaVuSans-68" x="750.582031"/>
       <use xlink:href="#DejaVuSans-6d" x="813.960938"/>
       <use xlink:href="#DejaVuSans-6f" x="911.373047"/>
       <use xlink:href="#DejaVuSans-64" x="972.554688"/>
       <use xlink:href="#DejaVuSans-65" x="1036.03125"/>
       <use xlink:href="#DejaVuSans-5f" x="1097.554688"/>
       <use xlink:href="#DejaVuSans-64" x="1147.554688"/>
       <use xlink:href="#DejaVuSans-72" x="1211.03125"/>
       <use xlink:href="#DejaVuSans-61" x="1252.144531"/>
       <use xlink:href="#DejaVuSans-66" x="1313.423828"/>
       <use xlink:href="#DejaVuSans-74" x="1346.878906"/>
       <use xlink:href="#DejaVuSans-6d" x="1386.087891"/>
       <use xlink:href="#DejaVuSans-6f" x="1483.5"/>
       <use xlink:href="#DejaVuSans-64" x="1544.681641"/>
       <use xlink:href="#DejaVuSans-65" x="1608.158203"/>
      </g>
     </g>
    </g>
    <g id="ytick_24">
     <g id="line2d_33">
      <g>
       <use xlink:href="#madf82830be" x="321.155" y="637.43125" style="stroke: #000000; stroke-width: 1.875"/>
      </g>
     </g>
     <g id="text_34">
      <!-- compress -->
      <g transform="translate(229.184297 643.699961) scale(0.165 -0.165)">
       <use xlink:href="#DejaVuSans-63"/>
       <use xlink:href="#DejaVuSans-6f" x="54.980469"/>
       <use xlink:href="#DejaVuSans-6d" x="116.162109"/>
       <use xlink:href="#DejaVuSans-70" x="213.574219"/>
       <use xlink:href="#DejaVuSans-72" x="277.050781"/>
       <use xlink:href="#DejaVuSans-65" x="315.914062"/>
       <use xlink:href="#DejaVuSans-73" x="377.4375"/>
       <use xlink:href="#DejaVuSans-73" x="429.537109"/>
      </g>
     </g>
    </g>
   </g>
   <g id="patch_27">
    <path d="M 321.155 650.58 
L 321.155 19.44 
" style="fill: none; stroke: #000000; stroke-width: 1.875; stroke-linejoin: miter; stroke-linecap: square"/>
   </g>
   <g id="patch_28">
    <path d="M 321.155 650.58 
L 1132.56 650.58 
" style="fill: none; stroke: #000000; stroke-width: 1.875; stroke-linejoin: miter; stroke-linecap: square"/>
   </g>
  </g>
 </g>
 <defs>
  <clipPath id="pfe32de258a">
   <rect x="321.155" y="19.44" width="811.405" height="631.14"/>
  </clipPath>
 </defs>
</svg>
